^C:\USERS\GÖKÇE\DOCUMENTS\VISUAL STUDIO 2013\PROJECTS\TRIADIC_SIMULATOR_CPP\TRIADIC_SIMULATOR_CPP\AGENT.CPP|C:\USERS\GÖKÇE\DOCUMENTS\VISUAL STUDIO 2013\PROJECTS\TRIADIC_SIMULATOR_CPP\TRIADIC_SIMULATOR_CPP\MAIN.CPP|C:\USERS\GÖKÇE\DOCUMENTS\VISUAL STUDIO 2013\PROJECTS\TRIADIC_SIMULATOR_CPP\TRIADIC_SIMULATOR_CPP\OPTIMALAGENT.CPP|C:\USERS\GÖKÇE\DOCUMENTS\VISUAL STUDIO 2013\PROJECTS\TRIADIC_SIMULATOR_CPP\TRIADIC_SIMULATOR_CPP\RANDOMAGENT.CPP
C:\USERS\GöKçE\DOCUMENTS\VISUAL STUDIO 2013\PROJECTS\TRIADIC_SIMULATOR_CPP\TRIADIC_SIMULATOR_CPP\DEBUG\VC120.PDB
C:\USERS\GöKçE\DOCUMENTS\VISUAL STUDIO 2013\PROJECTS\TRIADIC_SIMULATOR_CPP\TRIADIC_SIMULATOR_CPP\DEBUG\VC120.IDB
^C:\USERS\GÖKÇE\DOCUMENTS\VISUAL STUDIO 2013\PROJECTS\TRIADIC_SIMULATOR_CPP\TRIADIC_SIMULATOR_CPP\AGENT.CPP
C:\USERS\GÖKÇE\DOCUMENTS\VISUAL STUDIO 2013\PROJECTS\TRIADIC_SIMULATOR_CPP\TRIADIC_SIMULATOR_CPP\DEBUG\VC120.PDB
^C:\USERS\GÖKÇE\DOCUMENTS\VISUAL STUDIO 2013\PROJECTS\TRIADIC_SIMULATOR_CPP\TRIADIC_SIMULATOR_CPP\MAIN.CPP
C:\USERS\GÖKÇE\DOCUMENTS\VISUAL STUDIO 2013\PROJECTS\TRIADIC_SIMULATOR_CPP\TRIADIC_SIMULATOR_CPP\DEBUG\VC120.PDB
^C:\USERS\GÖKÇE\DOCUMENTS\VISUAL STUDIO 2013\PROJECTS\TRIADIC_SIMULATOR_CPP\TRIADIC_SIMULATOR_CPP\OPTIMALAGENT.CPP
C:\USERS\GÖKÇE\DOCUMENTS\VISUAL STUDIO 2013\PROJECTS\TRIADIC_SIMULATOR_CPP\TRIADIC_SIMULATOR_CPP\DEBUG\VC120.PDB
^C:\USERS\GÖKÇE\DOCUMENTS\VISUAL STUDIO 2013\PROJECTS\TRIADIC_SIMULATOR_CPP\TRIADIC_SIMULATOR_CPP\RANDOMAGENT.CPP
C:\USERS\GÖKÇE\DOCUMENTS\VISUAL STUDIO 2013\PROJECTS\TRIADIC_SIMULATOR_CPP\TRIADIC_SIMULATOR_CPP\DEBUG\VC120.PDB
